…
Filter gapminder to all entries that have experienced a drop in life expectancy. 

delta_lifeExp is the change in life exptancy from 3 years prior to the the value in the year column. 


```r
gapminder %>% 
  mutate(lifeExp, lag_lifeExp = lag(lifeExp)) %>% 
  mutate(lifeExp, delta_lifeExp = lifeExp - lag_lifeExp) %>%
  select(country, year, delta_lifeExp) %>%
  drop_na(delta_lifeExp)
```

```
## # A tibble: 1,703 x 3
##    country      year delta_lifeExp
##    <fct>       <int>         <dbl>
##  1 Afghanistan  1957        1.53  
##  2 Afghanistan  1962        1.66  
##  3 Afghanistan  1967        2.02  
##  4 Afghanistan  1972        2.07  
##  5 Afghanistan  1977        2.35  
##  6 Afghanistan  1982        1.42  
##  7 Afghanistan  1987        0.968 
##  8 Afghanistan  1992        0.852 
##  9 Afghanistan  1997        0.0890
## 10 Afghanistan  2002        0.366 
## # ... with 1,693 more rows
```
The data was then sorted to display the countries that experienced the largest drop in life expectancy from 2002 to 2007 at the top of the table. 


```r
gapminder %>% 
  mutate(lifeExp, lag_lifeExp = lag(lifeExp)) %>% 
  mutate(lifeExp, delta_lifeExp = lifeExp - lag_lifeExp) %>%
  filter(delta_lifeExp < 0) %>%
  arrange(-desc(delta_lifeExp)) %>% 
  select(country, year, delta_lifeExp) %>%
  drop_na(delta_lifeExp)
```

```
## # A tibble: 221 x 3
##    country                   year delta_lifeExp
##    <fct>                    <int>         <dbl>
##  1 Central African Republic  1952         -45.2
##  2 Somalia                   1952         -44.9
##  3 India                     1952         -44.4
##  4 Sierra Leone              1952         -43.7
##  5 Gabon                     1952         -43.7
##  6 Djibouti                  1952         -43.5
##  7 Oman                      1952         -42.6
##  8 Angola                    1952         -42.3
##  9 Benin                     1952         -41.2
## 10 Burkina Faso              1952         -41.0
## # ... with 211 more rows
```


```r
gapminder %>% 
  mutate(lifeExp, lag_lifeExp = lag(lifeExp)) %>% 
  mutate(lifeExp, delta_lifeExp = lifeExp - lag_lifeExp) %>%
   filter(year == 2007) %>%
  arrange(-desc(delta_lifeExp)) %>% 
  select(country,delta_lifeExp) %>%
  drop_na(delta_lifeExp) %>%
  rename(delta_lifeExp_2002_2007 = delta_lifeExp)
```

```
## # A tibble: 142 x 2
##    country      delta_lifeExp_2002_2007
##    <fct>                          <dbl>
##  1 Swaziland                     -4.26 
##  2 South Africa                  -4.03 
##  3 Lesotho                       -2.00 
##  4 Mozambique                    -1.94 
##  5 Gabon                         -0.026
##  6 Chad                           0.126
##  7 Nigeria                        0.251
##  8 Italy                          0.306
##  9 Jamaica                        0.520
## 10 Montenegro                     0.562
## # ... with 132 more rows
```
### Exercise 1.4 

Filter gapminder so that it shows the max GDP per capita experienced by each country. 


```r
gapminder %>% 
  group_by(country) %>%
  filter(gdpPercap == max(gdpPercap)) %>% 
  select(country, year, gdpPercap) %>%
  rename(Max_GDPperCap = gdpPercap)
```

```
## # A tibble: 142 x 3
## # Groups:   country [142]
##    country      year Max_GDPperCap
##    <fct>       <int>         <dbl>
##  1 Afghanistan  1982          978.
##  2 Albania      2007         5937.
##  3 Algeria      2007         6223.
##  4 Angola       1967         5523.
##  5 Argentina    2007        12779.
##  6 Australia    2007        34435.
##  7 Austria      2007        36126.
##  8 Bahrain      2007        29796.
##  9 Bangladesh   2007         1391.
## 10 Belgium      2007        33693.
## # ... with 132 more rows
```
…
